{
  "title": "Installing 18px",
  "example": "<i class='icon-installing md-18'></i>",
  "cssLink": "https://gitlab.com/SUSE-UIUX/eos/blob/master/assets/stylesheets/components/icons/installing.scss",
  "do": "<ul><li>User is waiting for an installation process to finalize.</li></ul>",
  "dont": "<ul><li>As feedback for refresh, reload or sync data.</li></ul>",
  "action": "Once the process conclude, we stop and remove the animation.",
  "tags": ["installing"]
}
