{
  "title": "Loading 36px",
  "example": "<i class='icon-loading md-36'></i>",
  "cssLink": "https://gitlab.com/SUSE-UIUX/eos/blob/master/assets/stylesheets/components/icons/loading.scss",
  "do": "<ul><li>User is waiting for new content to be serverd.</li></ul>",
  "dont": "<ul><li>The action return invisible results for the user.</li></ul>",
  "action": "The animations stops and it’s removed once the content is received.",
  "tags": ["loading"]
}
